…
```
##  [1] 1 2 3 4 1 2 3 4 1 2 3 4 1 2 3 4 1 2 3 4 1 2 3 4
## Levels: 1 2 3 4
```

```r
# 度数，行変数，列変数からなるデータを作成
freq_tab_intro <- tibble(Freq, PSES, MHS)
# データの確認
freq_tab_intro
```

```
## # A tibble: 24 x 3
##     Freq PSES  MHS  
##    <dbl> <fct> <fct>
##  1    64 1     1    
##  2    94 1     2    
##  3    58 1     3    
##  4    46 1     4    
##  5    57 2     1    
##  6    94 2     2    
##  7    54 2     3    
##  8    40 2     4    
##  9    57 3     1    
## 10   105 3     2    
## # … with 14 more rows
```
…
