…
```r
# 度数，行変数，列変数からなる集計データを作成
polviews <- gl(n = 7, k = 4)
fefam <- gl(n = 4, k = 1, length = 28)
freq_tab_2.3A <- tibble(Freq, polviews, fefam)
freq_tab_2.3A
```

```
# A tibble: 28 x 3
    Freq polviews fefam
   <dbl> <fct>    <fct>
 1    39 1        1    
 2    50 1        2    
 3    18 1        3    
 4     4 1        4    
 5   140 2        1    
 6   178 2        2    
 7    85 2        3    
 8    23 2        4    
 9   108 3        1    
10   195 3        2    
# … with 18 more rows
```

```r
# 行変数と列変数の整数値を作成
freq_tab_2.3A %<>% 
  mutate(Rscore = as.numeric(polviews),
         Cscore = as.numeric(fefam))
freq_tab_2.3A
```

```
# A tibble: 28 x 5
    Freq polviews fefam Rscore Cscore
   <dbl> <fct>    <fct>  <dbl>  <dbl>
 1    39 1        1          1      1
 2    50 1        2          1      2
 3    18 1        3          1      3
 4     4 1        4          1      4
 5   140 2        1          2      1
 6   178 2        2          2      2
 7    85 2        3          2      3
 8    23 2        4          2      4
 9   108 3        1          3      1
10   195 3        2          3      2
# … with 18 more rows
```
…
